
LISP-IMPLEMENTATION-TYPE:       International Allegro CL Enterprise Edition
LISP-IMPLEMENTATION-VERSION:    10.1 [64-bit Linux (x86-64)] (May 1, 2019 10:09)
MACHINE-TYPE:                   64-bit x86-64
MACHINE-VERSION:                x86_64
SOFTWARE-TYPE:                  64-bit Linux (x86-64), glibc 2.12
SOFTWARE-VERSION:               Linux 12f7b336381b 4.9.125-linuxkit #1 SMP Fri Sep 7 08:20:28 UTC 2018 x86_64 GNU/Linux
SHORT-SITE-NAME:                12f7b336381b
CL-VERSION-TYPE: :FINAL
CL-GENERATION-NUMBER: 9
*FEATURES*: :BORDEAUX-THREADS, :THREAD-SUPPORT, :SWANK, :QUICKLISP,
            :ASDF-PACKAGE-SYSTEM, :ASDF3.2, :ASDF3.1, :ASDF3, :ASDF2,
            :ASDF, :HAS-LOCKF, :HAS-MKDTEMP, :ACLDNS, :OS-UNIX,
            :ASDF-UNICODE, :ALLEGRO-CL-ENTERPRISE, :RFC8141, :RFC6874,
            :RFC3986, :IPV6, :ACL-SOCKET, :HIPER-SOCKET, :PROFILER,
            :NEW-XREF-RELATIONS, :|YACC Release 0.98|, :COMPILER,
            :USE-STRUCTS-IN-COMPILER, :CLOS, :ATOMIC-SUBWORD-SETF,
            :ATOMIC-SETF, :DYNLOAD, :DLFCN, :UNIX, :LINUX, :AMD64,
            :LINUX86-64, :X86-64, :LITTLE-ENDIAN, :ENCAPSULATING-EFS,
            :DOUBLE-FLOAT-RANDOM-FIX, :RELATIVE-PACKAGE-NAMES,
            :PROFILER-MEGAPATCH-2-STARTUP, :RFE15787-STARTUP,
            :MODULE-VERSIONS, :IEEE, :IEEE-FLOATING-POINT,
            :CONFORMING-IEEE, :GNU-SOURCE, :ICS, :COMMON-LISP,
            :ANSI-CL, :DRAFT-ANSI-CL-2, :X3J13, :ALLEGRO, :EXCL,
            :FRANZ-INC, :ALLEGRO-VERSION>=, :ALLEGRO-VERSION=,
            :NEW-ENVIRONMENTS, :GSGC, :FLAVORS, :MULTIPROCESSING,
            :USE-THREAD-LIBS, :ALLEGRO-V10.1, :FIXNARGS, :64BIT,
            :SMP-MACROS, :SSL-SUPPORT.
*MODULES*: "SWANK-ARGLISTS", "SWANK-FANCY-INSPECTOR", "SWANK-FUZZY",
           "SWANK-C-P-C", "SWANK-UTIL", "SWANK-MACROSTEP",
           "SWANK-PRESENTATIONS", "SWANK-PACKAGE-FU",
           "SWANK-TRACE-DIALOG", "SWANK-LISTENER-HOOKS", "SWANK-REPL",
           "SMPUTIL", "SMP-UTILITIES", "STREAMA", "LLDB", "asdf",
           "uiop", "OSI", "LOCALE", "EFMACS", "IORDEFS", "IODEFS",
           "ACLDNS", "FILEUTIL", "efft-latin1-base", "efft-void",
           "efft-utf8-base", "STREAMC", "REGEXP", "DEVELENV", "URI",
           "UTIL-STRING", "MCOMBIN", "CONSTRUCTOR", "LOOP", "SOCKET",
           "SOCK", "INSPECT", "PROF-S", "PROF", "TRACE", "XREF-S",
           "XREF", "SCM", "EMACS", "ELI", "SOCK-S", "LZE", "LEP",
           "SIGIO", "PROC2COMMON", "PROCESS", "COMPFTYPE", "DEFFTYPE",
           "FOREIGN", "FOREIGN-FUNCTIONS", "DEFSYSTEM", "DEFSYS",
           "DEFSYS-S", "PROC2-S", "TPL-PROC", "DEBUG", "TPL-DEBUG",
           "SRECORD", "REGEXP2", "YACC", "REGEXP2-S", "SAFESEQ",
           "SEQ2", "LIST2", "DISASM", "DISX86-64", "RSA", "AES",
           "FOREIGN-S", "COMPILER", "COMPDECL", "COMPILER-S", "EXCL",
           "PPRINT", "TOPLEVEL", "COND", "FRAME", "XFRAME", "ICS",
           "EF-UTF8", "EF-VOID", "EF-LATIN1", "EF-CRCRLF", "EF-CRLF",
           "SMPDEFS".
*CURRENT-CASE-MODE*: :CASE-INSENSITIVE-UPPER
*PRINT-CASE*: :UPCASE
*DUMPLISP-GENERATION-TICK*: 1
*DEFAULT-PATHNAME-DEFAULTS*: #P"/home/allegrocl/"
*REQUIRE-SEARCH-LIST*: :FIRST, #P"sys:;code;.fasl",
                       #P"sys:;private;.fasl",
                       #P"sys:;private;crypto;.fasl",
                       #P"sys:;clos;.fasl", #P"sys:;sys;.fasl",
                       #P"sys:;zlib;.fasl", #P"sys:;uri;.fasl",
                       #P"sys:;tester;.fasl", #P"sys:;cl-env;.fasl",
                       #P"sys:;loop;.fasl", #P"sys:;date;.fasl",
                       "sys:;net-xml-generator;.fasl",
                       "sys:;xmlutils;.fasl", "sys:;aserve;.fasl",
                       (:LIB-BUNDLE #P"sys:;code;.fasl"),
                       (:LIB-BUNDLE #P"sys:;private;.fasl"),
                       (:LIB-BUNDLE #P"sys:;private;crypto;.fasl"),
                       (:LIB-BUNDLE #P"sys:;clos;.fasl"),
                       (:LIB-BUNDLE #P"sys:;sys;.fasl"),
                       (:LIB-BUNDLE #P"sys:;zlib;.fasl"),
                       (:LIB-BUNDLE #P"sys:;uri;.fasl"),
                       (:LIB-BUNDLE #P"sys:;tester;.fasl"),
                       (:LIB-BUNDLE #P"sys:;cl-env;.fasl"),
                       (:LIB-BUNDLE #P"sys:;loop;.fasl"),
                       (:LIB-BUNDLE #P"sys:;date;.fasl").
*AUTOLOAD-SEARCH-LIST*: :FIRST, #P"sys:;code;.fasl",
                        #P"sys:;private;.fasl",
                        #P"sys:;private;crypto;.fasl",
                        #P"sys:;clos;.fasl", #P"sys:;sys;.fasl",
                        #P"sys:;zlib;.fasl", #P"sys:;uri;.fasl",
                        #P"sys:;tester;.fasl", #P"sys:;cl-env;.fasl",
                        #P"sys:;loop;.fasl", #P"sys:;date;.fasl",
                        "sys:;net-xml-generator;.fasl",
                        "sys:;xmlutils;.fasl", "sys:;aserve;.fasl",
                        (:LIB-BUNDLE #P"sys:;code;.fasl"),
                        (:LIB-BUNDLE #P"sys:;private;.fasl"),
                        (:LIB-BUNDLE #P"sys:;private;crypto;.fasl"),
                        (:LIB-BUNDLE #P"sys:;clos;.fasl"),
                        (:LIB-BUNDLE #P"sys:;sys;.fasl"),
                        (:LIB-BUNDLE #P"sys:;zlib;.fasl"),
                        (:LIB-BUNDLE #P"sys:;uri;.fasl"),
                        (:LIB-BUNDLE #P"sys:;tester;.fasl"),
                        (:LIB-BUNDLE #P"sys:;cl-env;.fasl"),
                        (:LIB-BUNDLE #P"sys:;loop;.fasl"),
                        (:LIB-BUNDLE #P"sys:;date;.fasl").
*LOAD-SEARCH-LIST*: #P"", #P(:TYPE "fasl"), #P(:TYPE "cl"),
                    #P(:TYPE "lisp"), #P(:TYPE "lsp").
.LOADED-SHARED-LIBRARIES.: #S(EXCL::SHLIB :NAME #P"sys:libacli10196.so"
                                          :HANDLE 8591168
                                          :PRELINKED T
                                          :MODE 258
                                          :ACLDLL T
                                          :ORIG-NAME NIL
                                          :SYSTEM-LIBRARY NIL
                                          :IGNORE-ON-REBIRTH NIL).
*LOCALE*: #<locale "C" [:LATIN1-BASE] @ #x10000521c02>
*REGARD-PACKAGE-NAMES-AS-FLAT*: NIL
*GLOBAL-FLAT-PACKAGE-OPTION-USED*: NIL
Command line arguments:
    "/opt/common-lisp/lang/allegrocl/acl10.1.64/alisp" "-I"
   "/opt/common-lisp/lang/allegrocl/acl10.1.64/alisp.dxl" "-L"
   "/home/allegrocl/clinit.cl"
This Lisp expires in 13 days.
Licensee: [TC22124] BW papersystems
The stored home location is /opt/common-lisp/lang/allegrocl/acl10.1.64/.
The scheduler has been started in this image.
Current optimization qualities: ((SAFETY 1) (SPACE 1) (SPEED 1)
                                 (COMPILATION-SPEED 1) (DEBUG 2)) 
**** Package violations:
****  FUNCTION:     EXCL::BOOT-NATIVE-STRING
****  FUNCTION:     EXCL::FIND-NAMED-PROFILE
****  FUNCTION:     EXCL::GET-PROFILE-ADDR-LIST
****  FUNCTION:     MULTIPROCESSING:DO-PERIODICALLY
****  FUNCTION:     EXCL::UPDATE-COMPILER-XREF-INFO
****  FUNCTION:     EXCL::COMPILER-MACROEXPAND-1
****  FUNCTION:     SYSTEM::TYPE-DECLARATION-HANDLER
****  FUNCTION:     EXCL::RECONS
****  FUNCTION:     (SETF FILE-WRITE-DATE)
****  FUNCTION:     (SETF EXCL:FILE-ACCESS-DATE)
****  FUNCTION:     SYSTEM::DISABLE-GC
****  FUNCTION:     SYSTEM::ENABLE-GC
Current COMPILER patches:
 mb013-01: Fix array creation with fixnum-returning dimension function.
 mb012-01: Add source-debug-info for defmethod forms.
 mb011-01: Fix source-level-debug generation for (setf values).
 mb010-01: Fix source-level-debug block placement.
 mb009-01: Fixes a bug in source-level-debugging related to handler-case.
 mb008-01: Fix two source debug info compile bugs.
 mb007-01: bitwise `and' operations compile into more efficient code on intel chips.
 mb006-01: Enhance logbitp compiler-macro.
 mb005-01: Allow re-espansion for add-typep-transformer predicates.
 mb003-05: Make equivalent-forms per-function rather than per-file.
 mb002-03: Make equivalent-forms per-function rather than per-file.
 mb001-01: Eliminate extra space reserved for stack-allocated &rest args.
Current LISP patches:
 ma018-01: Fix eql specializer interning.
 ma017-01: Fix :flat option to defpackage/make-package to integrate correctly.
 ma016-01: Fix the compiler-macro function-spec handler for non-fbound names.
 ma015-01: Fix source debug info for flets with gensyms as internal names.
 ma014-01: Fix :%pc value shown by :register or :local commands.
 ma013-01: Improved hashbang (shebang) support.
 ma012-01: Don't cache runsys functions while zooming.
 ma011-02: Speed up prefixp and allow optional prefix-length arg.
 ma010-01: Add :old :no-change option to sys::resize-areas and fix newspace bug.
 ma009-01: New date API functions and variables. See the documentation for details.
 ma008-02: Fix subtypep on complex type starting with 'not.
 ma006-02: Revokes the previous version of this patch.
 ma005-01: New excl:day-difference.
 ma004-01: filesys-filestat now fills :pathname slot of file-error; open/simple-open now fills errno slot with *enoent* when appropropate.
 ma003-02: Resolve duplicate runsys function hash codes.
 ma002-01: Define and export mp:do-periodically.
 ma001-01: Fix the :runsys function spec to work on non-lisp-like rs functions.
Current BUNDLE-VERSION-STAMP patches:
 ef-utf-8s-00: bundle-update trigger to build ef-templates for utf8s ef
 hash-01: v1: Add unsafe-gethash.
Current LISP-BUILDTIME-BUNDLE-VERSION-STAMP patches:
 ef-utf-8s-00: bundle-update trigger to build ef-templates for utf8s ef
 hash-01: v1: Add unsafe-gethash.
Current SYSTEM patches:
 lldb-04: v4: account for extra hits in profile output.
v3: add :profile argument to print-function-meta-info.
v2: Don't store lisp-like runsys functions into frame-descriptors.
v1: Bind *print-readably* to nil while printing info.
 fileutil-02: v2: map-over-directory: improved on-readdir-race detection/handling;
v1: map-over-directory: new on-readdir-race keyword.
 osi-01: v1: mkstemp: accept pathname for `template' argument.
 util-string-01: v1: cause string+ to handle nil consistently. 
 uri-06: v6: add IRI support;
v5: fix misc parser issues;
v4: string-to-uri/uri-to-string, parse-uri query pct encoding of +/=/&;
v3: fixes for non-strict mode parsing, merge-uris, render-uri and parse-uri;
v2: fixes for non-strict mode parsing;
v1: bring up to spec with RFCs 3986, 6874 and 8141.
 sock-02: v2: Add time to live for cached clib lookups;
v1: new socket:get-ip-addresses.
 prof-03: v3: Fix compatibility issues over redefined profiler structures.
v2: Fix profiler rewrite bugs/misfeatures, add prof:show-outline-profile.
v1: Rework profiler implementation.
 trace-01: v1: Fix tracing of closures.
 xref-01: v1: Add new relation types for added cross-reference relationships.
 sock-s-03: v3: new acl-socket:*ssl-features*;
v2: Add time to live for cached clib lookups;
v1: export get-ip-addresses from socket acl-package.
 proc2common-02: v2: Switch from general wait to gate wait in process-lock;
v1: Close very narrow race window in with-process-lock.
 compftype-01: v1: Fix with-static-fobject broken for :allocation :aligned.
 foreign-01: v1: Fix indirect reference ftype pass/return type interpretation.
 debug-01: v1: Don't store lisp-like runsys functions into frame-descriptors.
 srecord-02: v2: Fix source recording for "def" records.
v1: Allow ELI to parse excl:without-* macros correctly.
 disasm-02: v2: Fix profile disassemble of C/runsys functions.
v1: Add :profiler argument.
 disx86-64-01: v1: Change the way profiling is done.
 load1-01: v1: support for improved hashbang support.
 aes-01: v1: fix minor problem with v0;
v0: internal AES 256 for acache.
 init-02: v1: Arm64 munmap problems;
v2: internal VAR changes.
 init2-01: v1: internal VAR changes.
 load1-01: v1: support for improved hashbang support.
 pprint-01: v1: Fix tabulation with pretty-printing enabled.
 frame-01: v1: Don't store lisp-like runsys functions into frame-descriptors.
 startup-06: v6: remove net.xml.parser from package autoload list;
v5: Bootstrap newer profiler patch.
v4: Fix for Express;
v3: Bootstrap new profiler functions.
v2: export mplog;
v1: exports for *utf-8s-transcoding-error-action*, utf-8s-transcoding-error -error-char and -warning*.
 load-01: v1: support for improved hashbang support.
 hash-01: v1: Add unsafe-gethash.
Current LISP-WITH-BUNDLE-UPDATE patches:
 ef-utf-8s-00: bundle-update trigger to build ef-templates for utf8s ef
 hash-01: v1: Add unsafe-gethash.
Object file signatures: lisp_build 1079
